Amount spent ($)
3.11
8.88
9.26
10.81
12.69
13.78
15.23
15.62
17
17.39
18.36
18.43
19.27
19.5
19.54
20.16
20.59
22.22
23.04
24.47
24.58
25.13
26.24
26.26
27.65
28.06
28.08
28.38
32.03
34.98
36.37
38.64
39.16
41.02
42.97
44.08
44.67
45.4
46.69
48.65
50.39
52.75
54.8
59.07
61.22
70.32
82.7
85.76
86.37
93.34
