Year	Stocks	Bonds
1985	12.8	100.8
1986	34.6	161.8
1987	28.8	10.6
1988	-23.3	-5.8
1989	8.3	-1.4
1990	17.1	9.2
1991	50.6	74.6
1992	97	87.1
1993	151.3	84.6
1994	133.6	-72
1995	140.1	-6.8
1996	238.2	3.3
1997	243.5	30
1998	165.9	79.2
1999	194.3	-6.2
2000	309	-48
