24.739
34.213
33.093
30.261
29.794
24.31
20.711
26.427
28.308
28.894
23.719
29.633
26.371
25.117
26.234
29.917
30.288
29.376
20.601
30.531
31.08
31.606
26.445
30.787
25.767
26.261
28.723
24.842
29.606
25.496
27.811
29.171
24.283
25.91
29.461
28.183
26.249
28.401
24.744
23.577
30.477
31.333
27.639
31.75
27.956
23.466
24.95
24.546
28.779
26.773
22.057
21.286
33.954
23.506
30.738
24.03
16.792
26.018
30.615
31.208
34.067
21.75
29.333
23.745
28.276
35.376
27.37
31.548
22.809
28.329
23.85
30.586
25.73
23.592
27.529
28.611
24.773
29.661
23.971
33.077
26.557
23.872
31.245
27.859
24.071
27.849
26.821
28.49
36.763
26.135
30.241
27.201
23.117
31.13
24.695
22.52
28.091
28.174
28.973
26.935
33.345
26.488
30.22
29.726
30.711
31.974
32.847
27.814
25.143
34.082
23.17
25.386
30.751
26.05
25.469
34.74
28.212
29.407
31.751
29.118
24.733
19.339
21.348
21.222
24.855
35.662
36.165
23.001
27.333
21.652
31.982
45.702
32.623
33.535
28.527
31.204
34.946
35.683
22.714
32.576
33.672
29.608
29.254
27.489
30.039
34.246
30.13
30.653
25.755
26.436
21.789
23.752
29.33
27.818
25.229
25.271
29.469
32.951
28.676
32.184
29.142
24.7
26.441
25.854
23.271
24.826
30.494
17.402
30.078
26.841
32.059
27.324
26.286
28.434
25.184
25.722
29.557
33.019
21.767
30.708
34.368
23.185
26.942
30.441
28.378
23.994
27.512
27.59
22.399
28.998
21.53
32.964
24.24
28.447
26.621
19.414
33.443
26.967
20.461
19.647
31.065
29.52
22.476
32.37
28.779
41.625
31.423
26.878
22.944
24.949
19.105
24.105
23.287
29.81
26.765
27.272
31.669
24.22
30.406
29.775
24.219
38.565
24.798
28.76
27.587
26.037
26.167
22.192
29.23
26.893
23.712
26.012
31.099
26.954
24.324
22.726
28.641
17.016
24.691
25.016
27.612
25.856
28.603
33.238
34.168
28.713
33.936
24.747
28.181
30.727
24.438
22.383
39.165
28.768
30.628
29.746
25.256
21.496
19.743
27.462
26.237
31.417
28.618
26.217
31.354
37.215
26.143
24.893
32.365
28.546
28.182
25.865
37.305
34.345
22.174
26.21
25.393
31.316
27.56
26.161
25.633
25.624
33.132
21.238
25.081
26.393
31.921
28.733
25.124
30.008
22.148
29.512
25.009
21.375
22.9
26.95
25.766
25.408
35.698
22.957
34.408
22.848
29.326
24.004
26.697
27.196
26.058
27.372
30.572
24.979
29.158
32.571
23.227
27.395
35.224
26.22
34.761
23.959
24.116
30.355
29.108
33.843
29.315
29.449
29.506
27.716
29.672
23.209
24.294
29.057
30.519
27.659
25.404
26.262
20.785
26.732
26.978
24.238
32.718
29.302
31.66
37.28
30.797
28.571
31.22
34.708
26.934
28.349
28.39
32.062
39.042
20.228
30.088
26.321
26.342
27.97
28.255
27.659
30.926
33.198
24.354
30.533
23.232
26.27
24.484
26.102
33.881
29.217
21.4
21.74
25.96
27.532
26.409
29.277
29.083
24.312
31.528
28.906
25.084
22.874
26.48
30.439
32.608
31.637
26.813
27.586
29.666
31.812
26.859
28.63
39.495
24.308
26.654
27.974
26.053
24.894
32.032
28.277
33.046
22.841
34.607
25.03
37.461
29.974
30.66
32.105
30.069
28.015
31.595
27.9
18.572
26.609
27.256
29.454
20.554
37.912
27.122
24.616
26.542
26.9
25.14
29.942
31.511
24.504
23.344
30.516
28.655
31.008
26.779
19.629
22.765
29.772
27.075
23.522
25.347
30.977
25.328
29.426
25.487
27.057
36.022
19.065
20.666
26.596
32.181
22.361
29.109
32.517
25.966
29.233
28.332
23.162
29.019
28.12
24.881
36.179
33.368
22.404
26.872
25.214
31.928
29.457
28.563
37.931
25.551
28.88
24.241
29.366
28.088
29.706
25.188
22.632
31.397
31.727
27.225
23.623
26.885
22.353
24.948
31.901
25.988
21.182
33.658
29.732
28.451
24.916
25.75
30.012
27.112
25.609
24.658
28.057
26.745
28.968
29.806
31.173
27.393
36.279
30.615
28.113
25.067
25.388
28.772
27.702
23.011
26.348
36.611
29.759
21.671
27.54
26.479
29.161
27.677
25.923
35.4
34.22
23.667
27.328
31.827
33.402
26.989
28.378
31.618
27.64
28.882
26.42
32.004
28.723
28.56
28.692
25.099
24.679
31.217
26.232
30.658
26.729
30.845
21.609
33.403
27.196
23.403
27.848
34.324
24.244
26.324
25.833
29.154
32.307
22.175
27.258
31.374
27.875
27.688
35.18
27.309
27.764
34.936
26.348
29.772
26.403
24.177
31.797
31.859
28.393
34.233
41.96
25.485
27.714
22.179
31.332
28.578
32.004
34.837
25.997
25.445
22.871
26.334
29.036
25.839
27.262
24.548
26.713
31.71
28.18
21.511
26.193
29.875
32.409
30.284
30.662
26.648
26.287
31.808
26.093
27.68
23.036
20.185
28.34
33.703
28.686
23.263
29.249
27.134
27.094
23.733
25.124
27.403
31.734
27.643
29.653
27.205
27.809
30.967
28.317
24.43
29.373
26.314
25.331
24.017
28.588
21.821
33.65
28.513
25.013
28.406
26.324
25.348
29.697
23.986
21.367
29.01
30.228
38.774
33.369
25.825
27.165
25.412
21.706
22.66
31.32
32.29
22.494
26.848
29.598
24.421
24.312
26.115
30.796
23.01
28.827
34.497
29.422
26.2
28.477
31.512
31.88
26.31
24.471
26.971
29.118
32.268
26.783
28.211
28.282
30.918
24.502
24.333
25.354
24.958
23.097
32.985
23.503
24.926
28.195
29.004
24.063
28.017
26.805
20.948
34.399
28.157
28.841
20.543
30.406
24.794
29.96
25.194
26.076
26.871
24.437
31.834
31.975
24.555
23.52
31.665
21.978
35.287
27.696
23.17
29.244
28.91
26.646
28.473
25.51
23.362
29.558
30.658
17.803
30.706
24.695
38.673
36.354
26.337
24.381
31.06
25.375
30.993
31.843
32.855
22.876
25.206
27.91
25.683
25.055
30.965
23.04
31.474
24.025
31.797
31.494
26.409
27.416
25.787
26.339
28.586
29.441
25.284
26.534
31.708
29.523
29.313
24.533
28.955
30.416
24.458
28.224
26.576
31.59
26.367
27.383
25.288
33.733
24.685
27.894
34.645
21.987
30.737
25.775
23.666
29.621
25.028
26.818
27.801
33.277
21.032
23.427
23.691
27.265
28.368
31.464
30.43
32.347
28.273
25.138
25.955
34.748
26.237
28.03
22.72
25.418
23.904
33.845
27.923
29.403
23.476
30.136
28.558
24.935
26.72
34.278
29.052
21.095
25.188
20.61
31.097
27.937
26.796
29.115
30.791
25.301
25.227
31.606
22.316
26.887
30.739
20.082
20.602
29.717
26.856
28.342
29.217
27.793
26.635
26.511
21.243
25.001
25.988
29.127
27.138
26.831
25.78
22.9
25.026
19.569
28.133
27.334
28.629
34.726
30.998
27.939
23.231
22.115
24.244
38.306
27.201
23.942
26.218
32.598
24.03
26.168
23.802
27.549
27.907
17.986
36.224
33.812
32.526
31.783
27.341
34.92
30.253
31.149
24.139
27.904
30.424
32.354
35.002
31.411
35.49
27.54
24.386
36.814
31.213
26.674
28.464
19.819
26.304
29.817
30.401
30.309
22.435
25.044
20.808
26.752
21.74
27.203
33.329
27.907
25.385
28.565
34.589
27.119
28.605
31.563
25.558
29.18
36.677
28.491
22.436
35.277
34.695
24.371
22.855
21.27
26.606
26.77
25.393
24.087
28.228
34.522
24.711
24.565
30.063
28.941
29.704
29.654
31.681
25.259
24.51
26.978
21.766
23.117
23.404
24.319
30.704
31.141
28.014
23.402
25.602
17.646
27.036
25.361
28.916
23.865
27.213
26.077
32.557
25.731
38.318
31.402
33.466
34.353
23.542
32.622
26.926
26.525
21.443
24.681
25.699
28.224
33.031
25.354
23.974
29.836
29.032
34.907
20.794
34.609
25.082
28.213
33.638
31.434
25.471
25.127
24.312
30.514
30.638
32.171
21.446
29.658
21.606
25.607
37.123
27.374
25.012
28.146
30.483
27.934
25.912
36.469
26.601
20.254
26.026
35.608
33.229
32.413
29.757
24.443
26.138
31.476
27.075
24.406
30.953
33.726
26.442
30.115
27.158
30.174
29.249
33.142
32.256
22.071
30.764
21.614
28.946
30.73
30.568
29.176
34.051
31.299
